Estimate Marginal Subgroup Treatment Effects — estimate_subgroup_effects • bonsaiforest2
…
#> ... processing subgroup
#> ... processing region
#> Done.
#> $estimates
#> # A tibble: 5 × 4
#>   Subgroup     Median CI_Lower CI_Upper
#>   <chr>         <dbl>    <dbl>    <dbl>
#> 1 subgroup: S1  1.01     0.976    1.04 
#> 2 subgroup: S2  0.927    0.893    0.944
#> 3 subgroup: S3  1.07     1.03     1.10 
#> 4 region: A     1.02     0.978    1.04 
#> 5 region: B     1.01     0.976    1.03 
#> 
#> $draws
#> # A tibble: 40 × 5
#>    `subgroup: S1` `subgroup: S2` `subgroup: S3` `region: A` `region: B`
#>             <dbl>          <dbl>          <dbl>       <dbl>       <dbl>
#>  1          0.978          0.895           1.04       0.984       0.980
#>  2          0.978          0.895           1.04       0.984       0.980
#>  3          0.987          0.903           1.05       0.990       0.987
#>  4          0.987          0.903           1.05       0.990       0.987
#>  5          0.987          0.903           1.05       0.990       0.987
#>  6          0.976          0.893           1.03       0.978       0.976
#>  7          0.976          0.893           1.03       0.978       0.976
#>  8          0.976          0.893           1.03       0.978       0.976
#>  9          0.976          0.893           1.03       0.978       0.976
#> 10          0.976          0.893           1.03       0.978       0.976
#> # ℹ 30 more rows
…
